{
"KOMPAS-3D": "https://edu.ascon.ru/main/download/cab/",
"STDU.Viewer": "https://yadi.sk/d/POM9878_sw45XA/%D0%91%D0%B5%D1%81%D0%BF%D0%BB%D0%B0%D1%82%D0%BD%D0%BE%D0%B5%20%D0%9F%D0%9E/Office%2BPDF/STDU.Viewer-1.6.375.exe",
"Pdf.Creator": "https://disk.yandex.ru/d/POM9878_sw45XA/%D0%91%D0%B5%D1%81%D0%BF%D0%BB%D0%B0%D1%82%D0%BD%D0%BE%D0%B5%20%D0%9F%D0%9E/Office%2BPDF/pdf24-creator-10.0.11.exe",
"WindowsOffice2020": "https://disk.yandex.ru/d/POM9878_sw45XA/%D0%91%D0%B5%D1%81%D0%BF%D0%BB%D0%B0%D1%82%D0%BD%D0%BE%D0%B5%20%D0%9F%D0%9E/Office%2BPDF"
}